M48
METRIC,TZ
T1C0.970
T2C1.780
T3C2.750
%
G90
G05
T1
X28.49Y-26.73
X28.49Y-29.27
X31.03Y-26.73
X31.03Y-29.27
X33.57Y-26.73
X33.57Y-29.27
X36.11Y-26.73
X36.11Y-29.27
X38.65Y-26.73
X38.65Y-29.27
X41.19Y-26.73
X41.19Y-29.27
X43.73Y-26.73
X43.73Y-29.27
X46.27Y-26.73
X46.27Y-29.27
X48.81Y-26.73
X48.81Y-29.27
X51.35Y-26.73
X51.35Y-29.27
X53.89Y-26.73
X53.89Y-29.27
X56.43Y-26.73
X56.43Y-29.27
X58.97Y-26.73
X58.97Y-29.27
X61.51Y-26.73
X61.51Y-29.27
X64.05Y-26.73
X64.05Y-29.27
X66.59Y-26.73
X66.59Y-29.27
X69.13Y-26.73
X69.13Y-29.27
X71.67Y-26.73
X71.67Y-29.27
X74.21Y-26.73
X74.21Y-29.27
X76.75Y-26.73
X76.75Y-29.27
T2
X29.76Y-28.
X75.48Y-28.
T3
X81.62Y-51.
X23.62Y-51.
X81.62Y-28.
X23.62Y-28.
T0
M30
