G04 #@! TF.GenerationSoftware,KiCad,Pcbnew,(5.0.2)-1*
G04 #@! TF.CreationDate,2021-06-05T22:48:55+02:00*
G04 #@! TF.ProjectId,RPi_Zero_pHat_Template,5250695f-5a65-4726-9f5f-704861745f54,rev?*
G04 #@! TF.SameCoordinates,Original*
G04 #@! TF.FileFunction,Copper,L1,Top*
G04 #@! TF.FilePolarity,Positive*
%FSLAX46Y46*%
G04 Gerber Fmt 4.6, Leading zero omitted, Abs format (unit mm)*
G04 Created by KiCad (PCBNEW (5.0.2)-1) date 2021/06/05 10:48:55 PM*
%MOMM*%
%LPD*%
G01*
G04 APERTURE LIST*
G04 #@! TA.AperFunction,ComponentPad*
%ADD10C,1.800000*%
G04 #@! TD*
G04 #@! TA.AperFunction,ComponentPad*
%ADD11R,1.800000X1.800000*%
G04 #@! TD*
G04 #@! TA.AperFunction,ComponentPad*
%ADD12O,1.700000X1.700000*%
G04 #@! TD*
G04 #@! TA.AperFunction,ComponentPad*
%ADD13R,1.700000X1.700000*%
G04 #@! TD*
G04 #@! TA.AperFunction,ComponentPad*
%ADD14O,2.000000X2.000000*%
G04 #@! TD*
G04 #@! TA.AperFunction,ComponentPad*
%ADD15R,2.000000X2.000000*%
G04 #@! TD*
G04 #@! TA.AperFunction,ComponentPad*
%ADD16O,3.200000X3.200000*%
G04 #@! TD*
G04 #@! TA.AperFunction,ComponentPad*
%ADD17R,3.200000X3.200000*%
G04 #@! TD*
G04 #@! TA.AperFunction,ComponentPad*
%ADD18R,1.500000X1.500000*%
G04 #@! TD*
G04 #@! TA.AperFunction,ComponentPad*
%ADD19O,1.740000X2.200000*%
G04 #@! TD*
G04 #@! TA.AperFunction,Conductor*
%ADD20C,0.100000*%
G04 #@! TD*
G04 #@! TA.AperFunction,ComponentPad*
%ADD21C,1.740000*%
G04 #@! TD*
G04 #@! TA.AperFunction,ComponentPad*
%ADD22C,1.600000*%
G04 #@! TD*
G04 #@! TA.AperFunction,ComponentPad*
%ADD23O,1.600000X1.600000*%
G04 #@! TD*
G04 #@! TA.AperFunction,ComponentPad*
%ADD24O,1.400000X1.400000*%
G04 #@! TD*
G04 #@! TA.AperFunction,ComponentPad*
%ADD25C,1.400000*%
G04 #@! TD*
G04 #@! TA.AperFunction,ComponentPad*
%ADD26O,1.500000X1.500000*%
G04 #@! TD*
G04 #@! TA.AperFunction,ComponentPad*
%ADD27R,1.600000X1.600000*%
G04 #@! TD*
G04 #@! TA.AperFunction,ComponentPad*
%ADD28R,1.100000X1.600000*%
G04 #@! TD*
G04 #@! TA.AperFunction,ComponentPad*
%ADD29O,1.100000X1.600000*%
G04 #@! TD*
G04 #@! TA.AperFunction,Conductor*
%ADD30C,0.250000*%
G04 #@! TD*
G04 APERTURE END LIST*
D10*
G04 #@! TO.P,D3,2*
G04 #@! TO.N,Net-(D3-Pad2)*
X45720000Y-49530000D03*
D11*
G04 #@! TO.P,D3,1*
G04 #@! TO.N,Net-(D3-Pad1)*
X43180000Y-49530000D03*
G04 #@! TD*
D10*
G04 #@! TO.P,D6,2*
G04 #@! TO.N,Net-(D6-Pad2)*
X40640000Y-49530000D03*
D11*
G04 #@! TO.P,D6,1*
G04 #@! TO.N,GND*
X38100000Y-49530000D03*
G04 #@! TD*
D10*
G04 #@! TO.P,D4,2*
G04 #@! TO.N,Net-(D4-Pad2)*
X35560000Y-49530000D03*
D11*
G04 #@! TO.P,D4,1*
G04 #@! TO.N,GND*
X33020000Y-49530000D03*
G04 #@! TD*
D10*
G04 #@! TO.P,D5,2*
G04 #@! TO.N,Net-(D5-Pad2)*
X30480000Y-49530000D03*
D11*
G04 #@! TO.P,D5,1*
G04 #@! TO.N,GND*
X27940000Y-49530000D03*
G04 #@! TD*
D12*
G04 #@! TO.P,J2,40*
G04 #@! TO.N,Net-(J2-Pad40)*
X76750000Y-26730000D03*
G04 #@! TO.P,J2,39*
G04 #@! TO.N,GND*
X76750000Y-29270000D03*
G04 #@! TO.P,J2,38*
G04 #@! TO.N,Net-(J2-Pad38)*
X74210000Y-26730000D03*
G04 #@! TO.P,J2,37*
G04 #@! TO.N,Net-(J2-Pad37)*
X74210000Y-29270000D03*
G04 #@! TO.P,J2,36*
G04 #@! TO.N,Net-(J2-Pad36)*
X71670000Y-26730000D03*
G04 #@! TO.P,J2,35*
G04 #@! TO.N,Net-(J2-Pad35)*
X71670000Y-29270000D03*
G04 #@! TO.P,J2,34*
G04 #@! TO.N,GND*
X69130000Y-26730000D03*
G04 #@! TO.P,J2,33*
G04 #@! TO.N,Net-(J2-Pad33)*
X69130000Y-29270000D03*
G04 #@! TO.P,J2,32*
G04 #@! TO.N,Net-(J2-Pad32)*
X66590000Y-26730000D03*
G04 #@! TO.P,J2,31*
G04 #@! TO.N,Net-(J2-Pad31)*
X66590000Y-29270000D03*
G04 #@! TO.P,J2,30*
G04 #@! TO.N,GND*
X64050000Y-26730000D03*
G04 #@! TO.P,J2,29*
G04 #@! TO.N,/GPIO05*
X64050000Y-29270000D03*
G04 #@! TO.P,J2,28*
G04 #@! TO.N,Net-(J2-Pad28)*
X61510000Y-26730000D03*
G04 #@! TO.P,J2,27*
G04 #@! TO.N,Net-(J2-Pad27)*
X61510000Y-29270000D03*
G04 #@! TO.P,J2,26*
G04 #@! TO.N,Net-(J2-Pad26)*
X58970000Y-26730000D03*
G04 #@! TO.P,J2,25*
G04 #@! TO.N,GND*
X58970000Y-29270000D03*
G04 #@! TO.P,J2,24*
G04 #@! TO.N,Net-(J2-Pad24)*
X56430000Y-26730000D03*
G04 #@! TO.P,J2,23*
G04 #@! TO.N,Net-(J2-Pad23)*
X56430000Y-29270000D03*
G04 #@! TO.P,J2,22*
G04 #@! TO.N,Net-(J2-Pad22)*
X53890000Y-26730000D03*
G04 #@! TO.P,J2,21*
G04 #@! TO.N,Net-(J2-Pad21)*
X53890000Y-29270000D03*
G04 #@! TO.P,J2,20*
G04 #@! TO.N,GND*
X51350000Y-26730000D03*
G04 #@! TO.P,J2,19*
G04 #@! TO.N,Net-(J2-Pad19)*
X51350000Y-29270000D03*
G04 #@! TO.P,J2,18*
G04 #@! TO.N,/GPIO18*
X48810000Y-26730000D03*
G04 #@! TO.P,J2,17*
G04 #@! TO.N,Net-(J2-Pad17)*
X48810000Y-29270000D03*
G04 #@! TO.P,J2,16*
G04 #@! TO.N,/GPIO18*
X46270000Y-26730000D03*
G04 #@! TO.P,J2,15*
G04 #@! TO.N,Net-(J2-Pad15)*
X46270000Y-29270000D03*
G04 #@! TO.P,J2,14*
G04 #@! TO.N,GND*
X43730000Y-26730000D03*
G04 #@! TO.P,J2,13*
G04 #@! TO.N,/GPIO05*
X43730000Y-29270000D03*
G04 #@! TO.P,J2,12*
G04 #@! TO.N,/GPIO18*
X41190000Y-26730000D03*
G04 #@! TO.P,J2,11*
G04 #@! TO.N,/GPIO05*
X41190000Y-29270000D03*
G04 #@! TO.P,J2,10*
G04 #@! TO.N,Net-(J2-Pad10)*
X38650000Y-26730000D03*
G04 #@! TO.P,J2,9*
G04 #@! TO.N,GND*
X38650000Y-29270000D03*
G04 #@! TO.P,J2,8*
G04 #@! TO.N,Net-(J2-Pad8)*
X36110000Y-26730000D03*
G04 #@! TO.P,J2,7*
G04 #@! TO.N,Net-(J2-Pad7)*
X36110000Y-29270000D03*
G04 #@! TO.P,J2,6*
G04 #@! TO.N,GND*
X33570000Y-26730000D03*
G04 #@! TO.P,J2,5*
G04 #@! TO.N,Net-(J2-Pad5)*
X33570000Y-29270000D03*
G04 #@! TO.P,J2,4*
G04 #@! TO.N,Net-(J2-Pad4)*
X31030000Y-26730000D03*
G04 #@! TO.P,J2,3*
G04 #@! TO.N,Net-(J2-Pad3)*
X31030000Y-29270000D03*
G04 #@! TO.P,J2,2*
G04 #@! TO.N,/GPIO18*
X28490000Y-26730000D03*
D13*
G04 #@! TO.P,J2,1*
G04 #@! TO.N,/GPIO05*
X28490000Y-29270000D03*
G04 #@! TD*
D14*
G04 #@! TO.P,C1,2*
G04 #@! TO.N,GND*
X83580000Y-44450000D03*
D15*
G04 #@! TO.P,C1,1*
G04 #@! TO.N,Net-(C1-Pad1)*
X68580000Y-44450000D03*
G04 #@! TD*
G04 #@! TO.P,C2,1*
G04 #@! TO.N,Net-(C2-Pad1)*
X68580000Y-34290000D03*
D14*
G04 #@! TO.P,C2,2*
G04 #@! TO.N,GND*
X83580000Y-34290000D03*
G04 #@! TD*
G04 #@! TO.P,C3,2*
G04 #@! TO.N,Net-(C3-Pad2)*
X65800000Y-45720000D03*
D15*
G04 #@! TO.P,C3,1*
G04 #@! TO.N,Net-(C3-Pad1)*
X50800000Y-45720000D03*
G04 #@! TD*
G04 #@! TO.P,C4,1*
G04 #@! TO.N,Net-(C4-Pad1)*
X68580000Y-39370000D03*
D14*
G04 #@! TO.P,C4,2*
G04 #@! TO.N,GND*
X83580000Y-39370000D03*
G04 #@! TD*
D16*
G04 #@! TO.P,D1,2*
G04 #@! TO.N,Net-(C3-Pad1)*
X77470000Y-50800000D03*
D17*
G04 #@! TO.P,D1,1*
G04 #@! TO.N,Net-(C4-Pad1)*
X69850000Y-50800000D03*
G04 #@! TD*
D18*
G04 #@! TO.P,D2,1*
G04 #@! TO.N,Net-(C3-Pad2)*
X38100000Y-43180000D03*
D16*
G04 #@! TO.P,D2,2*
G04 #@! TO.N,GND*
X45720000Y-43180000D03*
G04 #@! TD*
D19*
G04 #@! TO.P,J3,2*
G04 #@! TO.N,Net-(J3-Pad1)*
X24130000Y-43180000D03*
D20*
G04 #@! TD*
G04 #@! TO.N,Net-(J3-Pad1)*
G04 #@! TO.C,J3*
G36*
X22234505Y-42081204D02*
X22258773Y-42084804D01*
X22282572Y-42090765D01*
X22305671Y-42099030D01*
X22327850Y-42109520D01*
X22348893Y-42122132D01*
X22368599Y-42136747D01*
X22386777Y-42153223D01*
X22403253Y-42171401D01*
X22417868Y-42191107D01*
X22430480Y-42212150D01*
X22440970Y-42234329D01*
X22449235Y-42257428D01*
X22455196Y-42281227D01*
X22458796Y-42305495D01*
X22460000Y-42329999D01*
X22460000Y-44030001D01*
X22458796Y-44054505D01*
X22455196Y-44078773D01*
X22449235Y-44102572D01*
X22440970Y-44125671D01*
X22430480Y-44147850D01*
X22417868Y-44168893D01*
X22403253Y-44188599D01*
X22386777Y-44206777D01*
X22368599Y-44223253D01*
X22348893Y-44237868D01*
X22327850Y-44250480D01*
X22305671Y-44260970D01*
X22282572Y-44269235D01*
X22258773Y-44275196D01*
X22234505Y-44278796D01*
X22210001Y-44280000D01*
X20969999Y-44280000D01*
X20945495Y-44278796D01*
X20921227Y-44275196D01*
X20897428Y-44269235D01*
X20874329Y-44260970D01*
X20852150Y-44250480D01*
X20831107Y-44237868D01*
X20811401Y-44223253D01*
X20793223Y-44206777D01*
X20776747Y-44188599D01*
X20762132Y-44168893D01*
X20749520Y-44147850D01*
X20739030Y-44125671D01*
X20730765Y-44102572D01*
X20724804Y-44078773D01*
X20721204Y-44054505D01*
X20720000Y-44030001D01*
X20720000Y-42329999D01*
X20721204Y-42305495D01*
X20724804Y-42281227D01*
X20730765Y-42257428D01*
X20739030Y-42234329D01*
X20749520Y-42212150D01*
X20762132Y-42191107D01*
X20776747Y-42171401D01*
X20793223Y-42153223D01*
X20811401Y-42136747D01*
X20831107Y-42122132D01*
X20852150Y-42109520D01*
X20874329Y-42099030D01*
X20897428Y-42090765D01*
X20921227Y-42084804D01*
X20945495Y-42081204D01*
X20969999Y-42080000D01*
X22210001Y-42080000D01*
X22234505Y-42081204D01*
X22234505Y-42081204D01*
G37*
D21*
G04 #@! TO.P,J3,1*
G04 #@! TO.N,Net-(J3-Pad1)*
X21590000Y-43180000D03*
G04 #@! TD*
D20*
G04 #@! TO.N,Net-(J4-Pad1)*
G04 #@! TO.C,J4*
G36*
X22234505Y-34461204D02*
X22258773Y-34464804D01*
X22282572Y-34470765D01*
X22305671Y-34479030D01*
X22327850Y-34489520D01*
X22348893Y-34502132D01*
X22368599Y-34516747D01*
X22386777Y-34533223D01*
X22403253Y-34551401D01*
X22417868Y-34571107D01*
X22430480Y-34592150D01*
X22440970Y-34614329D01*
X22449235Y-34637428D01*
X22455196Y-34661227D01*
X22458796Y-34685495D01*
X22460000Y-34709999D01*
X22460000Y-36410001D01*
X22458796Y-36434505D01*
X22455196Y-36458773D01*
X22449235Y-36482572D01*
X22440970Y-36505671D01*
X22430480Y-36527850D01*
X22417868Y-36548893D01*
X22403253Y-36568599D01*
X22386777Y-36586777D01*
X22368599Y-36603253D01*
X22348893Y-36617868D01*
X22327850Y-36630480D01*
X22305671Y-36640970D01*
X22282572Y-36649235D01*
X22258773Y-36655196D01*
X22234505Y-36658796D01*
X22210001Y-36660000D01*
X20969999Y-36660000D01*
X20945495Y-36658796D01*
X20921227Y-36655196D01*
X20897428Y-36649235D01*
X20874329Y-36640970D01*
X20852150Y-36630480D01*
X20831107Y-36617868D01*
X20811401Y-36603253D01*
X20793223Y-36586777D01*
X20776747Y-36568599D01*
X20762132Y-36548893D01*
X20749520Y-36527850D01*
X20739030Y-36505671D01*
X20730765Y-36482572D01*
X20724804Y-36458773D01*
X20721204Y-36434505D01*
X20720000Y-36410001D01*
X20720000Y-34709999D01*
X20721204Y-34685495D01*
X20724804Y-34661227D01*
X20730765Y-34637428D01*
X20739030Y-34614329D01*
X20749520Y-34592150D01*
X20762132Y-34571107D01*
X20776747Y-34551401D01*
X20793223Y-34533223D01*
X20811401Y-34516747D01*
X20831107Y-34502132D01*
X20852150Y-34489520D01*
X20874329Y-34479030D01*
X20897428Y-34470765D01*
X20921227Y-34464804D01*
X20945495Y-34461204D01*
X20969999Y-34460000D01*
X22210001Y-34460000D01*
X22234505Y-34461204D01*
X22234505Y-34461204D01*
G37*
D21*
G04 #@! TD*
G04 #@! TO.P,J4,1*
G04 #@! TO.N,Net-(J4-Pad1)*
X21590000Y-35560000D03*
D19*
G04 #@! TO.P,J4,2*
G04 #@! TO.N,Net-(J4-Pad2)*
X24130000Y-35560000D03*
G04 #@! TD*
D22*
G04 #@! TO.P,L1,1*
G04 #@! TO.N,Net-(C3-Pad2)*
X29210000Y-45720000D03*
D23*
G04 #@! TO.P,L1,2*
G04 #@! TO.N,Net-(C4-Pad1)*
X31750000Y-45720000D03*
G04 #@! TD*
D24*
G04 #@! TO.P,R1,2*
G04 #@! TO.N,Net-(C1-Pad1)*
X60320000Y-52070000D03*
D25*
G04 #@! TO.P,R1,1*
G04 #@! TO.N,Net-(C2-Pad1)*
X58420000Y-52070000D03*
G04 #@! TD*
D24*
G04 #@! TO.P,R2,2*
G04 #@! TO.N,Net-(R2-Pad2)*
X59050000Y-49530000D03*
D25*
G04 #@! TO.P,R2,1*
G04 #@! TO.N,Net-(C4-Pad1)*
X57150000Y-49530000D03*
G04 #@! TD*
G04 #@! TO.P,R3,1*
G04 #@! TO.N,Net-(R2-Pad2)*
X60960000Y-49530000D03*
D24*
G04 #@! TO.P,R3,2*
G04 #@! TO.N,GND*
X62860000Y-49530000D03*
G04 #@! TD*
D25*
G04 #@! TO.P,R4,1*
G04 #@! TO.N,Net-(R4-Pad1)*
X52070000Y-49530000D03*
D24*
G04 #@! TO.P,R4,2*
G04 #@! TO.N,Net-(R4-Pad2)*
X53970000Y-49530000D03*
G04 #@! TD*
G04 #@! TO.P,R5,2*
G04 #@! TO.N,GND*
X64130000Y-52070000D03*
D25*
G04 #@! TO.P,R5,1*
G04 #@! TO.N,Net-(R4-Pad2)*
X62230000Y-52070000D03*
G04 #@! TD*
G04 #@! TO.P,R6,1*
G04 #@! TO.N,Net-(R4-Pad1)*
X54610000Y-52070000D03*
D24*
G04 #@! TO.P,R6,2*
G04 #@! TO.N,Net-(R6-Pad2)*
X56510000Y-52070000D03*
G04 #@! TD*
G04 #@! TO.P,R7,2*
G04 #@! TO.N,GND*
X52700000Y-52070000D03*
D25*
G04 #@! TO.P,R7,1*
G04 #@! TO.N,Net-(R6-Pad2)*
X50800000Y-52070000D03*
G04 #@! TD*
G04 #@! TO.P,R8,1*
G04 #@! TO.N,Net-(D3-Pad2)*
X39370000Y-52070000D03*
D24*
G04 #@! TO.P,R8,2*
G04 #@! TO.N,Net-(R8-Pad2)*
X41270000Y-52070000D03*
G04 #@! TD*
D25*
G04 #@! TO.P,R9,1*
G04 #@! TO.N,Net-(R9-Pad1)*
X46990000Y-52070000D03*
D24*
G04 #@! TO.P,R9,2*
G04 #@! TO.N,Net-(R10-Pad1)*
X48890000Y-52070000D03*
G04 #@! TD*
G04 #@! TO.P,R10,2*
G04 #@! TO.N,GND*
X45080000Y-52070000D03*
D25*
G04 #@! TO.P,R10,1*
G04 #@! TO.N,Net-(R10-Pad1)*
X43180000Y-52070000D03*
G04 #@! TD*
G04 #@! TO.P,R11,1*
G04 #@! TO.N,/Sheet60BB44E1/GPIO05*
X31750000Y-52070000D03*
D24*
G04 #@! TO.P,R11,2*
G04 #@! TO.N,Net-(D4-Pad2)*
X33650000Y-52070000D03*
G04 #@! TD*
G04 #@! TO.P,R12,2*
G04 #@! TO.N,Net-(D5-Pad2)*
X29840000Y-52070000D03*
D25*
G04 #@! TO.P,R12,1*
G04 #@! TO.N,/Sheet60BB44E1/GPIO17*
X27940000Y-52070000D03*
G04 #@! TD*
G04 #@! TO.P,R13,1*
G04 #@! TO.N,/Sheet60BB44E1/GPIO27*
X35560000Y-52070000D03*
D24*
G04 #@! TO.P,R13,2*
G04 #@! TO.N,Net-(D6-Pad2)*
X37460000Y-52070000D03*
G04 #@! TD*
D18*
G04 #@! TO.P,U1,1*
G04 #@! TO.N,Net-(J3-Pad1)*
X57150000Y-36830000D03*
D26*
G04 #@! TO.P,U1,2*
G04 #@! TO.N,Net-(U1-Pad2)*
X58050000Y-40530000D03*
G04 #@! TO.P,U1,3*
G04 #@! TO.N,Net-(U1-Pad3)*
X58950000Y-36830000D03*
G04 #@! TO.P,U1,4*
G04 #@! TO.N,Net-(C2-Pad1)*
X59850000Y-40530000D03*
G04 #@! TO.P,U1,5*
G04 #@! TO.N,Net-(U1-Pad5)*
X60750000Y-36830000D03*
G04 #@! TO.P,U1,6*
G04 #@! TO.N,Net-(R2-Pad2)*
X61650000Y-40530000D03*
G04 #@! TO.P,U1,7*
G04 #@! TO.N,Net-(C4-Pad1)*
X62550000Y-36830000D03*
G04 #@! TO.P,U1,8*
G04 #@! TO.N,Net-(C3-Pad2)*
X63450000Y-40530000D03*
G04 #@! TO.P,U1,9*
G04 #@! TO.N,Net-(C3-Pad1)*
X64350000Y-36830000D03*
G04 #@! TD*
D27*
G04 #@! TO.P,U2,1*
G04 #@! TO.N,Net-(R4-Pad1)*
X35560000Y-31750000D03*
D23*
G04 #@! TO.P,U2,5*
G04 #@! TO.N,Net-(R8-Pad2)*
X27940000Y-39370000D03*
G04 #@! TO.P,U2,2*
G04 #@! TO.N,Net-(R4-Pad2)*
X33020000Y-31750000D03*
G04 #@! TO.P,U2,6*
G04 #@! TO.N,Net-(R10-Pad1)*
X30480000Y-39370000D03*
G04 #@! TO.P,U2,3*
G04 #@! TO.N,Net-(C4-Pad1)*
X30480000Y-31750000D03*
G04 #@! TO.P,U2,7*
G04 #@! TO.N,Net-(R9-Pad1)*
X33020000Y-39370000D03*
G04 #@! TO.P,U2,4*
G04 #@! TO.N,N/C*
X27940000Y-31750000D03*
G04 #@! TO.P,U2,8*
X35560000Y-39370000D03*
G04 #@! TD*
G04 #@! TO.P,U3,8*
G04 #@! TO.N,Net-(U3-Pad5)*
X49530000Y-39370000D03*
G04 #@! TO.P,U3,4*
G04 #@! TO.N,Net-(J4-Pad1)*
X41910000Y-31750000D03*
G04 #@! TO.P,U3,7*
G04 #@! TO.N,/Sheet60BB2F00/GPIO24*
X46990000Y-39370000D03*
G04 #@! TO.P,U3,3*
G04 #@! TO.N,Net-(R4-Pad1)*
X44450000Y-31750000D03*
G04 #@! TO.P,U3,6*
G04 #@! TO.N,/Sheet60BB2F00/GPIO23*
X44450000Y-39370000D03*
G04 #@! TO.P,U3,2*
G04 #@! TO.N,Net-(R4-Pad1)*
X46990000Y-31750000D03*
G04 #@! TO.P,U3,5*
G04 #@! TO.N,Net-(U3-Pad5)*
X41910000Y-39370000D03*
D27*
G04 #@! TO.P,U3,1*
G04 #@! TO.N,Net-(J4-Pad2)*
X49530000Y-31750000D03*
G04 #@! TD*
D28*
G04 #@! TO.P,U4,1*
G04 #@! TO.N,/Sheet60BB3AAE/GPIO18*
X48260000Y-49530000D03*
D29*
G04 #@! TO.P,U4,2*
G04 #@! TO.N,Net-(D3-Pad1)*
X49530000Y-49530000D03*
G04 #@! TO.P,U4,3*
G04 #@! TO.N,GND*
X50800000Y-49530000D03*
G04 #@! TD*
D30*
G04 #@! TO.N,GND*
X38100000Y-48380000D02*
X38100000Y-49530000D01*
X38175001Y-48304999D02*
X38100000Y-48380000D01*
X44340001Y-48304999D02*
X38175001Y-48304999D01*
X44405001Y-48369999D02*
X44340001Y-48304999D01*
X44405001Y-50405052D02*
X44405001Y-48369999D01*
X45080000Y-51080051D02*
X44405001Y-50405052D01*
X45080000Y-52070000D02*
X45080000Y-51080051D01*
X49167559Y-48404990D02*
X49892441Y-48404990D01*
X38557558Y-37794989D02*
X49167559Y-48404990D01*
X32930009Y-37794989D02*
X38557558Y-37794989D01*
X31894999Y-38829999D02*
X32930009Y-37794989D01*
X50405010Y-50142441D02*
X49747451Y-50800000D01*
X44494999Y-51484999D02*
X44494999Y-48941999D01*
X45080000Y-52070000D02*
X44494999Y-51484999D01*
X44494999Y-48941999D02*
X45131999Y-48304999D01*
X45131999Y-48304999D02*
X40289997Y-48304999D01*
X40289997Y-48304999D02*
X31894999Y-39910001D01*
X31894999Y-39910001D02*
X31894999Y-38829999D01*
X62160001Y-50229999D02*
X62860000Y-49530000D01*
X61198589Y-50555001D02*
X61834999Y-50555001D01*
X60898581Y-50855009D02*
X61198589Y-50555001D01*
X56812011Y-50855009D02*
X60898581Y-50855009D01*
X56551992Y-50594990D02*
X56812011Y-50855009D01*
X50857559Y-50594990D02*
X56551992Y-50594990D01*
X50405010Y-50142441D02*
X50857559Y-50594990D01*
X50405010Y-48917559D02*
X50405010Y-50142441D01*
X47719990Y-48404990D02*
X49892441Y-48404990D01*
X31605001Y-32290001D02*
X47719990Y-48404990D01*
X31605001Y-31209999D02*
X31605001Y-32290001D01*
X31020001Y-30624999D02*
X31605001Y-31209999D01*
X29939999Y-30624999D02*
X31020001Y-30624999D01*
X29354999Y-31209999D02*
X29939999Y-30624999D01*
X29354999Y-32238591D02*
X29354999Y-31209999D01*
X26814999Y-34778591D02*
X29354999Y-32238591D01*
X26814999Y-52462001D02*
X26814999Y-34778591D01*
X61834999Y-50555001D02*
X62160001Y-50229999D01*
X27898009Y-53545011D02*
X26814999Y-52462001D01*
X51224989Y-53545011D02*
X27898009Y-53545011D01*
X49892441Y-48404990D02*
X50405010Y-48917559D01*
X52700000Y-52070000D02*
X51224989Y-53545011D01*
G04 #@! TO.N,Net-(C1-Pad1)*
X68580000Y-45700000D02*
X68580000Y-44450000D01*
X63235001Y-51044999D02*
X68580000Y-45700000D01*
X61345001Y-51044999D02*
X63235001Y-51044999D01*
X60320000Y-52070000D02*
X61345001Y-51044999D01*
G04 #@! TO.N,Net-(C2-Pad1)*
X58774999Y-39454999D02*
X59850000Y-40530000D01*
X64665001Y-39454999D02*
X58774999Y-39454999D01*
X68580000Y-34290000D02*
X68580000Y-35540000D01*
X68580000Y-35540000D02*
X64665001Y-39454999D01*
G04 #@! TO.N,Net-(C3-Pad2)*
X32290001Y-46845001D02*
X34290000Y-44845002D01*
X29210000Y-45720000D02*
X30335001Y-46845001D01*
X30335001Y-46845001D02*
X32290001Y-46845001D01*
X34290000Y-44845002D02*
X34290000Y-43816410D01*
G04 #@! TO.N,Net-(C3-Pad1)*
X64350000Y-36830000D02*
X62595011Y-38584989D01*
X62595011Y-38584989D02*
X62595011Y-39004989D01*
G04 #@! TO.N,Net-(C4-Pad1)*
X29680001Y-32549999D02*
X30480000Y-31750000D01*
X29354999Y-32875001D02*
X29680001Y-32549999D01*
X29354999Y-43324999D02*
X29354999Y-32875001D01*
X31750000Y-45720000D02*
X29354999Y-43324999D01*
X60017997Y-47045001D02*
X66436001Y-47045001D01*
X58024999Y-49037999D02*
X60017997Y-47045001D01*
X57150000Y-49530000D02*
X58024999Y-50404999D01*
X58024999Y-50404999D02*
X58024999Y-49037999D01*
X67310000Y-46171002D02*
X67310000Y-45720000D01*
X34499999Y-30624999D02*
X56344999Y-30624999D01*
X34434999Y-30689999D02*
X34499999Y-30624999D01*
X34434999Y-32810001D02*
X34434999Y-30689999D01*
X61800001Y-36080001D02*
X62550000Y-36830000D01*
X34950009Y-33325011D02*
X34434999Y-32810001D01*
X45440011Y-33325011D02*
X34950009Y-33325011D01*
X56344999Y-30624999D02*
X61800001Y-36080001D01*
X59160001Y-47045001D02*
X45440011Y-33325011D01*
X66436001Y-47045001D02*
X59160001Y-47045001D01*
X67310000Y-46171002D02*
X66436001Y-47045001D01*
G04 #@! TO.N,Net-(R4-Pad1)*
X43650001Y-32549999D02*
X44450000Y-31750000D01*
X43324999Y-32875001D02*
X43650001Y-32549999D01*
X37735001Y-32875001D02*
X43324999Y-32875001D01*
X36610000Y-31750000D02*
X37735001Y-32875001D01*
X35560000Y-31750000D02*
X36610000Y-31750000D01*
X44450000Y-31750000D02*
X46990000Y-31750000D01*
X55309999Y-52769999D02*
X54610000Y-52070000D01*
X55635001Y-53095001D02*
X55309999Y-52769999D01*
X64622001Y-53095001D02*
X55635001Y-53095001D01*
X65155001Y-52562001D02*
X64622001Y-53095001D01*
X65155001Y-51577999D02*
X65155001Y-52562001D01*
X69905001Y-46827999D02*
X65155001Y-51577999D01*
X69905001Y-43189999D02*
X69905001Y-46827999D01*
X69840001Y-43124999D02*
X69905001Y-43189999D01*
X58364999Y-43124999D02*
X69840001Y-43124999D01*
X46990000Y-31750000D02*
X58364999Y-43124999D01*
G04 #@! TO.N,Net-(R4-Pad2)*
X50899988Y-48404990D02*
X52844990Y-48404990D01*
X46644001Y-41254999D02*
X49474999Y-44085997D01*
X49474999Y-44085997D02*
X49474999Y-46980001D01*
X44669997Y-41254999D02*
X46644001Y-41254999D01*
X43324999Y-39910001D02*
X44669997Y-41254999D01*
X43324999Y-39119997D02*
X43324999Y-39910001D01*
X53270001Y-48830001D02*
X53970000Y-49530000D01*
X41549981Y-37344979D02*
X43324999Y-39119997D01*
X49474999Y-46980001D02*
X50899988Y-48404990D01*
X38333567Y-37344979D02*
X41549981Y-37344979D01*
X33819999Y-32831411D02*
X38333567Y-37344979D01*
X33819999Y-32549999D02*
X33819999Y-32831411D01*
X52844990Y-48404990D02*
X53270001Y-48830001D01*
X33020000Y-31750000D02*
X33819999Y-32549999D01*
G04 #@! TO.N,Net-(R6-Pad2)*
X51499999Y-51370001D02*
X50800000Y-52070000D01*
X51825001Y-51044999D02*
X51499999Y-51370001D01*
X55484999Y-51044999D02*
X51825001Y-51044999D01*
X56510000Y-52070000D02*
X55484999Y-51044999D01*
G04 #@! TO.N,Net-(R9-Pad1)*
X33819999Y-38570001D02*
X33020000Y-39370000D01*
X34145001Y-38244999D02*
X33819999Y-38570001D01*
X36248001Y-38244999D02*
X34145001Y-38244999D01*
X46990000Y-48986998D02*
X36248001Y-38244999D01*
X46990000Y-52070000D02*
X46990000Y-48986998D01*
G04 #@! TO.N,Net-(R10-Pad1)*
X48190001Y-52769999D02*
X48890000Y-52070000D01*
X47864999Y-53095001D02*
X48190001Y-52769999D01*
X44205001Y-53095001D02*
X47864999Y-53095001D01*
X43180000Y-52070000D02*
X44205001Y-53095001D01*
X43180000Y-52070000D02*
X42154999Y-51044999D01*
X31279999Y-40169999D02*
X30480000Y-39370000D01*
X36785001Y-45675001D02*
X31279999Y-40169999D01*
X36785001Y-50600003D02*
X36785001Y-45675001D01*
X37229997Y-51044999D02*
X36785001Y-50600003D01*
X42154999Y-51044999D02*
X37229997Y-51044999D01*
G04 #@! TD*
M02*
